unit_id,character_id,range
1,1,"[,)"
1,24,"[,)"
1,26,"[,)"
1,28,"[,)"
1,39,"[,)"
2,10,"[,)"
2,31,"[,)"
2,56,"[,)"
3,6,"[,)"
3,32,"[,)"
3,54,"[,)"
4,104,"[,)"
4,101,"[,)"
4,105,"[,)"
5,75,"[,)"
5,20,"[,)"
5,23,"[,)"
5,81,"[,)"
6,90,"[,)"
6,79,"[,)"
6,54,"[,)"
7,60,"[,)"
7,79,"[,)"
7,54,"[,)"
8,80,"[,)"
8,96,"[,)"
8,58,"[,)"
9,89,"[,)"
9,91,"[,)"
9,49,"[,)"
10,4,"[,)"
10,25,"[,)"
10,54,"[,)"
11,181,"[,)"
11,69,"[,)"
11,108,"[,)"
11,62,"[,)"
12,109,"[,)"
12,160,"[,)"
12,140,"[,)"
13,84,"[,)"
13,102,"[,)"
13,122,"[,)"
14,18,"[,)"
14,34,"[,)"
14,47,"[,)"
15,89,"[,)"
15,145,"[,)"
15,172,"[,)"
15,123,"[,)"
15,154,"[,)"
16,142,"[2016/1/28,)"
16,167,"[2014/12/22,)"
16,151,"[2014/5/26,)"
16,80,"[2016/3/31,)"
16,13,"[2013/11/27,)"
16,164,"[2015/9/14,)"
16,71,"[2013/9/9,)"
16,28,"[2013/9/9,)"
16,29,"[2015/3/10,)"
16,35,"[2014/6/12,)"
16,115,"[2014/10/17,)"
16,41,"[2016/3/31,)"
16,74,"[2016/3/31,)"
16,97,"[2015/6/18,)"
16,141,"[2015/11/28,)"
16,100,"[2016/3/18,)"
16,70,"[2016/11/28,)"
16,58,"[2014/4/14,)"
17,83,"[,)"
17,179,"[,)"
17,132,"[,)"
17,166,"[,)"
17,39,"[,)"
17,165,"[,)"
18,159,"[,)"
18,118,"[,)"
18,164,"[,)"
18,69,"[,)"
18,165,"[,)"
19,16,"[,)"
19,22,"[,)"
19,161,"[,)"
20,14,"[,)"
20,43,"[,)"
20,46,"[,)"
21,133,"[,)"
21,137,"[,)"
21,45,"[,)"
22,14,"[,)"
22,45,"[,)"
22,76,"[,)"
23,14,"[,)"
23,43,"[,)"
23,48,"[,)"
24,77,"[,)"
24,113,"[,)"
24,79,"[,)"
25,137,"[,)"
25,138,"[,)"
25,134,"[,)"
26,151,"[,)"
26,115,"[,)"
26,176,"[,)"
28,151,"[,)"
28,121,"[,)"
28,115,"[,)"
29,77,"[,)"
29,113,"[,)"
29,153,"[,)"
30,145,"[,)"
30,111,"[,)"
30,127,"[,)"
31,26,"[,)"
31,33,"[,)"
31,44,"[,)"
32,4,"[,)"
32,8,"[,)"
32,10,"[,)"
33,9,"[,)"
33,12,"[,)"
33,17,"[,)"
34,2,"[,)"
34,8,"[,)"
34,10,"[,)"
34,15,"[,)"
34,16,"[,)"
35,4,"[,)"
35,6,"[,)"
35,7,"[,)"
35,60,"[,)"
35,18,"[,)"
36,65,"[,)"
36,3,"[,)"
36,80,"[,)"
36,12,"[,)"
36,19,"[,)"
37,25,"[,)"
37,31,"[,)"
37,38,"[,)"
38,155,"[,)"
38,82,"[,)"
38,119,"[,)"
39,27,"[,)"
39,31,"[,)"
39,33,"[,)"
39,34,"[,)"
39,36,"[,)"
40,22,"[,)"
40,25,"[,)"
40,26,"[,)"
40,32,"[,)"
40,38,"[,)"
41,63,"[,)"
41,30,"[,)"
41,35,"[,)"
41,67,"[,)"
41,37,"[,)"
42,49,"[,)"
42,52,"[,)"
42,56,"[,)"
43,42,"[,)"
43,44,"[,)"
43,55,"[,)"
44,93,"[,)"
44,53,"[,)"
44,88,"[,)"
45,52,"[,)"
45,53,"[,)"
45,59,"[,)"
46,131,"[,)"
46,177,"[,)"
46,59,"[,)"
47,62,"[,)"
48,41,"[,)"
48,46,"[,)"
48,47,"[,)"
48,56,"[,)"
48,57,"[,)"
49,49,"[,)"
49,50,"[,)"
49,52,"[,)"
49,54,"[,)"
49,55,"[,)"
50,40,"[,)"
50,74,"[,)"
50,43,"[,)"
50,44,"[,)"
50,53,"[,)"
51,65,"[,)"
51,8,"[,)"
51,10,"[,)"
52,89,"[,)"
52,9,"[,)"
52,12,"[,)"
52,179,"[,)"
52,17,"[,)"
53,4,"[,)"
53,18,"[,)"
53,106,"[,)"
53,164,"[,)"
54,21,"[,)"
54,145,"[,)"
54,72,"[,)"
54,126,"[,)"
54,107,"[,)"
55,56,"[,)"
55,64,"[,)"
55,73,"[,)"
56,138,"[,)"
56,43,"[,)"
56,53,"[,)"
56,58,"[,)"
57,45,"[,)"
57,131,"[,)"
57,154,"[,)"
57,177,"[,)"
58,167,"[,)"
58,82,"[,)"
58,74,"[,)"
59,135,"[,)"
59,36,"[,)"
59,103,"[,)"
60,113,"[,)"
60,133,"[,)"
60,81,"[,)"
61,157,"[,)"
61,139,"[,)"
61,48,"[,)"
61,70,"[,)"
62,157,"[,)"
62,139,"[,)"
62,48,"[,)"
63,112,"[,)"
63,182,"[,)"
63,156,"[,)"
64,129,"[,)"
64,171,"[,)"
64,123,"[,)"
65,150,"[,)"
65,137,"[,)"
65,134,"[,)"
66,178,"[,)"
66,95,"[,)"
66,100,"[,)"
67,4,"[,)"
67,25,"[,)"
67,57,"[,)"
68,9,"[,)"
68,12,"[,)"
68,37,"[,)"
68,111,"[,)"
69,20,"[,)"
69,107,"[,)"
69,44,"[,)"
70,85,"[,)"
70,69,"[,)"
70,43,"[,)"
71,66,"[,)"
71,35,"[,)"
71,53,"[,)"
72,13,"[,)"
72,71,"[,)"
72,115,"[,)"
72,97,"[,)"
73,157,"[,)"
73,34,"[,)"
73,95,"[,)"
73,183,"[,)"
74,4,"[,)"
74,10,"[,)"
74,15,"[,)"
74,16,"[,)"
74,18,"[,)"
74,22,"[,)"
74,27,"[,)"
74,31,"[,)"
74,34,"[,)"
74,36,"[,)"
74,41,"[,)"
74,47,"[,)"
74,56,"[,)"
74,57,"[,)"
75,4,"[,)"
75,15,"[,)"
75,18,"[,)"
76,41,"[,)"
76,47,"[,)"
76,57,"[,)"
77,6,"[,)"
77,8,"[,)"
77,60,"[,)"
77,26,"[,)"
77,32,"[,)"
77,33,"[,)"
77,46,"[,)"
77,50,"[,)"
77,52,"[,)"
78,6,"[,)"
78,7,"[,)"
78,53,"[,)"
79,19,"[,)"
79,22,"[,)"
79,25,"[,)"
79,63,"[,)"
79,30,"[,)"
79,31,"[,)"
79,35,"[,)"
79,37,"[,)"
79,38,"[,)"
79,43,"[,)"
80,3,"[,)"
80,19,"[,)"
80,30,"[,)"
80,37,"[,)"
80,46,"[,)"
81,63,"[,)"
81,35,"[,)"
81,36,"[,)"
81,40,"[,)"
81,49,"[,)"
82,14,"[,)"
82,61,"[,)"
82,86,"[,)"
82,45,"[,)"
82,76,"[,)"
83,4,"[,)"
83,8,"[,)"
83,60,"[,)"
83,34,"[,)"
83,38,"[,)"
84,26,"[,)"
84,116,"[,)"
84,93,"[,)"
84,52,"[,)"
84,55,"[,)"
85,2,"[,)"
85,33,"[,)"
85,82,"[,)"
85,44,"[,)"
85,147,"[,)"
86,15,"[,)"
86,57,"[,)"
87,46,"[,)"
87,47,"[,)"
88,34,"[,)"
88,45,"[,)"
89,21,"[,)"
89,43,"[,)"
90,97,"[,)"
90,141,"[,)"
91,7,"[,)"
91,30,"[,)"
92,11,"[,)"
92,49,"[,)"
93,1,"[,)"
93,24,"[,)"
94,2,"[,)"
94,147,"[,)"
95,18,"[,)"
95,50,"[,)"
96,32,"[,)"
96,54,"[,)"
97,12,"[,)"
97,17,"[,)"
98,72,"[,)"
98,110,"[,)"
99,10,"[,)"
99,56,"[,)"
100,94,"[,)"
100,100,"[,)"
101,27,"[,)"
101,67,"[,)"
102,16,"[,)"
102,22,"[,)"
103,37,"[,)"
103,38,"[,)"
104,77,"[,)"
104,175,"[,)"
105,79,"[,)"
105,54,"[,)"
106,14,"[,)"
106,76,"[,)"
107,89,"[,)"
107,18,"[,)"
108,80,"[,)"
108,74,"[,)"
109,129,"[,)"
109,9,"[,)"
110,151,"[,)"
110,94,"[,)"
111,181,"[,)"
111,62,"[,)"
112,19,"[,)"
112,30,"[,)"
113,35,"[,)"
113,88,"[,)"
114,107,"[,)"
114,119,"[,)"
115,128,"[,)"
115,1,"[,)"
116,98,"[,)"
116,78,"[,)"
117,137,"[,)"
117,111,"[,)"
118,32,"[,)"
118,41,"[,)"
119,33,"[,)"
119,37,"[,)"
120,118,"[,)"
120,73,"[,)"
121,69,"[,)"
121,62,"[,)"
122,151,"[,)"
122,97,"[,)"
123,7,"[,)"
123,8,"[,)"
124,144,"[,)"
124,143,"[,)"
125,163,"[,)"
125,5,"[,)"
126,142,"[,)"
126,42,"[,)"
127,39,"[,)"
127,99,"[,)"
128,136,"[,)"
128,39,"[,)"
128,99,"[,)"
129,180,"[,)"
129,170,"[,)"
130,52,"[,)"
130,55,"[,)"
131,3,"[,)"
131,19,"[,)"
132,133,"[,)"
132,126,"[,)"
133,21,"[,)"
133,133,"[,)"
133,126,"[,)"
133,168,"[,)"
134,49,"[,)"
134,50,"[,)"
135,66,"[,)"
135,40,"[,)"
136,94,"[,)"
136,53,"[,)"
137,19,"[,)"
137,37,"[,)"
138,150,"[,)"
138,145,"[,)"
139,178,"[,)"
139,95,"[,)"
140,40,"[,)"
140,49,"[,)"
141,65,"[,)"
141,137,"[,)"
142,91,"[,)"
142,92,"[,)"
143,147,"[,)"
143,154,"[,)"
144,33,"[,)"
144,117,"[,)"
145,22,"[,)"
145,36,"[,)"
146,16,"[,)"
146,34,"[,)"
147,2,"[,)"
147,55,"[,)"
148,27,"[,)"
148,32,"[,)"
149,173,"[,)"
149,89,"[,)"
149,68,"[,)"
150,173,"[,)"
150,125,"[,)"
150,102,"[,)"
150,58,"[,)"
151,173,"[,)"
151,21,"[,)"
151,177,"[,)"
152,173,"[,)"
152,80,"[,)"
152,72,"[,)"
153,173,"[,)"
153,68,"[,)"
153,58,"[,)"
154,148,"[,)"
154,126,"[,)"
154,162,"[,)"
155,7,"[,)"
155,25,"[,)"
155,50,"[,)"
156,120,"[,)"
156,135,"[,)"
156,124,"[,)"
157,151,"[,)"
157,96,"[,)"
157,74,"[,)"
158,8,"[,)"
158,27,"[,)"
158,92,"[,)"
159,33,"[,)"
159,175,"[,)"
160,6,"[,)"
160,11,"[,)"
160,76,"[,)"
161,174,"[,)"
161,72,"[,)"
161,119,"[,)"
161,122,"[,)"
162,43,"[,)"
162,88,"[,)"
162,70,"[,)"
163,107,"[,)"
163,69,"[,)"
164,153,"[,)"
164,62,"[,)"
165,75,"[,)"
165,18,"[,)"
165,149,"[,)"
166,175,"[,)"
166,105,"[,)"
166,93,"[,)"
167,133,"[,)"
167,72,"[,)"
167,161,"[,)"
168,160,"[,)"
168,102,"[,)"
169,83,"[,)"
169,55,"[,)"
170,118,"[,)"
170,51,"[,)"
171,107,"[,)"
171,141,"[,)"
171,103,"[,)"
172,130,"[,)"
172,168,"[,)"
173,86,"[,)"
173,44,"[,)"
174,68,"[,)"
174,114,"[,)"
174,176,"[,)"
175,182,"[,)"
175,146,"[,)"
176,5,"[,)"
176,143,"[,)"
177,16,"[,)"
177,67,"[,)"
177,47,"[,)"
178,26,"[,)"
178,126,"[,)"
179,150,"[,)"
179,1,"[,)"
179,169,"[,)"
180,60,"[,)"
180,149,"[,)"
181,181,"[,)"
181,13,"[,)"
181,106,"[,)"
182,24,"[,)"
182,43,"[,)"
183,136,"[,)"
183,139,"[,)"
183,43,"[,)"
183,64,"[,)"
184,80,"[,)"
184,28,"[,)"
184,74,"[,)"
185,146,"[,)"
185,117,"[,)"
186,14,"[,)"
186,76,"[,)"
187,144,"[,)"
187,183,"[,)"
188,136,"[,)"
188,128,"[,)"
188,167,"[,)"
189,170,"[,)"
189,93,"[,)"
189,73,"[,)"
190,10,"[,)"
190,109,"[,)"
190,176,"[,)"
191,125,"[,)"
191,133,"[,)"
191,146,"[,)"
192,115,"[,)"
192,110,"[,)"
192,103,"[,)"
193,12,"[,)"
193,31,"[,)"
193,53,"[,)"
194,152,"[,)"
194,154,"[,)"
194,162,"[,)"
195,172,"[,)"
195,64,"[,)"
195,92,"[,)"
196,4,"[,)"
196,99,"[,)"
196,50,"[,)"
197,80,"[,)"
197,104,"[,)"
197,32,"[,)"
198,2,"[,)"
198,19,"[,)"
198,48,"[,)"
199,106,"[,)"
199,182,"[,)"
199,46,"[,)"
200,34,"[,)"
200,45,"[,)"
201,9,"[,)"
201,130,"[,)"
201,127,"[,)"
202,40,"[,)"
202,43,"[,)"
202,44,"[,)"
203,82,"[,)"
203,87,"[,)"
203,42,"[,)"
204,15,"[,)"
204,74,"[,)"
204,47,"[,)"
205,7,"[,)"
205,25,"[,)"
205,50,"[,)"
206,114,"[,)"
206,108,"[,)"
207,120,"[,)"
207,67,"[,)"
207,88,"[,)"
208,85,"[,)"
208,175,"[,)"
208,53,"[,)"
209,135,"[,)"
209,86,"[,)"
210,132,"[,)"
210,166,"[,)"
210,143,"[,)"
211,3,"[,)"
211,37,"[,)"
211,46,"[,)"
212,12,"[,)"
212,21,"[,)"
212,43,"[,)"
213,15,"[,)"
213,103,"[,)"
214,27,"[,)"
214,32,"[,)"
214,54,"[,)"
215,68,"[,)"
215,139,"[,)"
215,51,"[,)"
216,90,"[,)"
216,152,"[,)"
216,138,"[,)"
217,10,"[,)"
217,37,"[,)"
217,52,"[,)"
218,13,"[,)"
218,87,"[,)"
218,70,"[,)"
219,181,"[,)"
219,158,"[,)"
219,105,"[,)"
220,167,"[,)"
220,110,"[,)"
221,128,"[,)"
221,172,"[,)"
221,123,"[,)"
222,89,"[,)"
222,115,"[,)"
222,58,"[,)"
223,151,"[,)"
223,112,"[,)"
223,97,"[,)"
224,26,"[,)"
224,132,"[,)"
224,168,"[,)"
225,130,"[,)"
225,74,"[,)"
226,164,"[,)"
226,72,"[,)"
226,154,"[,)"
227,174,"[,)"
227,171,"[,)"
227,117,"[,)"
228,180,"[,)"
228,44,"[,)"
228,162,"[,)"
229,94,"[,)"
229,156,"[,)"
230,157,"[,)"
230,17,"[,)"
230,150,"[,)"
231,113,"[,)"
231,155,"[,)"
232,65,"[,)"
232,82,"[,)"
233,179,"[,)"
233,1,"[,)"
233,40,"[,)"
234,89,"[,)"
234,122,"[,)"
235,178,"[,)"
235,32,"[,)"
235,54,"[,)"
236,139,"[,)"
236,51,"[,)"
237,121,"[,)"
237,63,"[,)"
238,80,"[,)"
238,27,"[,)"
238,158,"[,)"
239,7,"[,)"
239,29,"[,)"
239,146,"[,)"
240,150,"[,)"
240,114,"[,)"
240,165,"[,)"
241,66,"[,)"
241,23,"[,)"
242,84,"[,)"
242,136,"[,)"
242,140,"[,)"
243,75,"[,)"
243,166,"[,)"
243,105,"[,)"
244,143,"[,)"
244,49,"[,)"
244,64,"[,)"
245,174,"[,)"
245,44,"[,)"
246,142,"[,)"
246,67,"[,)"
246,131,"[,)"
247,5,"[,)"
247,74,"[,)"
248,102,"[,)"
248,78,"[,)"
249,11,"[,)"
249,26,"[,)"
249,183,"[,)"
250,21,"[,)"
250,72,"[,)"
251,71,"[,)"
252,77,"[,)"
252,46,"[,)"
252,122,"[,)"
253,174,"[,)"
253,107,"[,)"
253,162,"[,)"
254,5,"[,)"
254,165,"[,)"
254,42,"[,)"
255,104,"[,)"
255,106,"[,)"
255,115,"[,)"
256,80,"[,)"
256,25,"[,)"
256,54,"[,)"
257,112,"[,)"
257,23,"[,)"
258,181,"[,)"
258,36,"[,)"
258,59,"[,)"
259,85,"[,)"
259,95,"[,)"
259,52,"[,)"
260,159,"[,)"
260,166,"[,)"
260,70,"[,)"
261,168,"[,)"
261,158,"[,)"
262,7,"[,)"
262,1,"[,)"
262,73,"[,)"
263,94,"[,)"
263,100,"[,)"
263,58,"[,)"
264,113,"[,)"
264,91,"[,)"
264,134,"[,)"
265,132,"[,)"
265,32,"[,)"
266,83,"[,)"
266,20,"[,)"
266,39,"[,)"
267,65,"[,)"
267,40,"[,)"
268,4,"[,)"
268,29,"[,)"
268,35,"[,)"
269,118,"[,)"
269,150,"[,)"
269,37,"[,)"
270,131,"[,)"
270,154,"[,)"
270,122,"[,)"
271,128,"[,)"
271,171,"[,)"
271,108,"[,)"
272,18,"[,)"
272,38,"[,)"
272,147,"[,)"
273,83,"[,)"
273,95,"[,)"
273,103,"[,)"
274,130,"[,)"
274,74,"[,)"
274,169,"[,)"
275,67,"[,)"
275,79,"[,)"
275,55,"[,)"
276,61,"[,)"
276,158,"[,)"
277,101,"[,)"
277,51,"[,)"
278,82,"[,)"
278,58,"[,)"
279,85,"[,)"
279,45,"[,)"
279,76,"[,)"
280,172,"[,)"
280,162,"[,)"
280,64,"[,)"
281,174,"[,)"
281,72,"[,)"
281,119,"[,)"
282,2,"[,)"
282,6,"[,)"
282,80,"[,)"
283,176,"[,)"
283,92,"[,)"
284,22,"[,)"
284,63,"[,)"
284,33,"[,)"
285,123,"[,)"
285,134,"[,)"
285,177,"[,)"
286,84,"[,)"
286,146,"[,)"
287,25,"[,)"
287,41,"[,)"
287,62,"[,)"
288,89,"[,)"
288,135,"[,)"
288,152,"[,)"
289,2,"[,)"
289,40,"[,)"
289,50,"[,)"
290,178,"[,)"
290,72,"[,)"
290,86,"[,)"
291,104,"[,)"
291,29,"[,)"
291,116,"[,)"
291,123,"[,)"
292,4,"[,)"
292,15,"[,)"
292,47,"[,)"
293,98,"[,)"
293,134,"[,)"
294,16,"[,)"
294,100,"[,)"
295,33,"[,)"
295,175,"[,)"
296,94,"[,)"
296,136,"[,)"
296,182,"[,)"
296,146,"[,)"
297,125,"[,)"
297,114,"[,)"
298,126,"[,)"
298,168,"[,)"
298,131,"[,)"
299,109,"[,)"
299,176,"[,)"
300,66,"[,)"
300,108,"[,)"
300,53,"[,)"
301,181,"[,)"
301,91,"[,)"
301,93,"[,)"
302,23,"[,)"
302,126,"[,)"
302,131,"[,)"
303,13,"[,)"
303,115,"[,)"
303,74,"[,)"
304,142,"[,)"
304,161,"[,)"
305,77,"[,)"
305,113,"[,)"
305,96,"[,)"
305,153,"[,)"
306,90,"[,)"
306,36,"[,)"
306,51,"[,)"
307,157,"[,)"
307,95,"[,)"
307,45,"[,)"
308,75,"[,)"
308,137,"[,)"
308,73,"[,)"
309,21,"[,)"
309,103,"[,)"
310,106,"[,)"
310,164,"[,)"
310,71,"[,)"
311,98,"[,)"
311,182,"[,)"
312,149,"[,)"
312,87,"[,)"
312,43,"[,)"
313,85,"[,)"
313,153,"[,)"
314,143,"[,)"
314,119,"[,)"
314,141,"[,)"
315,144,"[,)"
315,120,"[,)"
315,53,"[,)"
316,35,"[,)"
316,127,"[,)"
316,76,"[,)"
317,3,"[,)"
317,181,"[,)"
317,63,"[,)"
318,80,"[,)"
318,28,"[,)"
318,88,"[,)"
319,5,"[,)"
319,139,"[,)"
319,63,"[,)"
320,124,"[,)"
320,160,"[,)"
320,97,"[,)"
321,71,"[,)"
321,176,"[,)"
321,47,"[,)"
322,9,"[,)"
322,39,"[,)"
323,133,"[,)"
323,52,"[,)"
324,14,"[,)"
324,81,"[,)"
324,156,"[,)"
325,75,"[,)"
325,145,"[,)"
325,140,"[,)"
326,19,"[,)"
326,38,"[,)"
326,57,"[,)"
327,61,"[,)"
327,45,"[,)"
327,54,"[,)"
328,4,"[,)"
328,55,"[,)"
328,92,"[,)"
329,33,"[,)"
329,155,"[,)"
329,117,"[,)"
330,174,"[,)"
330,49,"[,)"
331,167,"[,)"
331,93,"[,)"
332,65,"[,)"
332,130,"[,)"
332,108,"[,)"
333,2,"[,)"
333,30,"[,)"
333,44,"[,)"
334,7,"[,)"
334,23,"[,)"
334,132,"[,)"
335,6,"[,)"
335,147,"[,)"
336,125,"[,)"
336,152,"[,)"
336,67,"[,)"
337,159,"[,)"
337,91,"[,)"
337,88,"[,)"
338,157,"[,)"
338,17,"[,)"
338,64,"[,)"
339,142,"[,)"
339,36,"[,)"
339,158,"[,)"
340,120,"[,)"
340,138,"[,)"
340,59,"[,)"
341,27,"[,)"
341,137,"[,)"
341,78,"[,)"
342,135,"[,)"
342,131,"[,)"
342,146,"[,)"
343,3,"[,)"
343,35,"[,)"
343,169,"[,)"
344,130,"[,)"
344,42,"[,)"
344,47,"[,)"
345,14,"[,)"
345,19,"[,)"
345,39,"[,)"
346,174,"[,)"
346,107,"[,)"
346,76,"[,)"
347,66,"[,)"
347,38,"[,)"
347,55,"[,)"
348,68,"[,)"
348,176,"[,)"
367,82,"[,)"
367,169,"[,)"
367,42,"[,)"
368,83,"[,)"
368,155,"[,)"
368,158,"[,)"
369,148,"[,)"
369,61,"[,)"
370,77,"[,)"
370,153,"[,)"
370,147,"[,)"
371,32,"[,)"
371,41,"[,)"
371,47,"[,)"
372,126,"[,)"
372,168,"[,)"
372,44,"[,)"
373,65,"[,)"
373,119,"[,)"
374,116,"[,)"
374,93,"[,)"
375,13,"[,)"
375,71,"[,)"
375,58,"[,)"
376,161,"[,)"
376,182,"[,)"
376,99,"[,)"
377,26,"[,)"
377,88,"[,)"
378,85,"[,)"
378,45,"[,)"
378,76,"[,)"
379,95,"[,)"
379,51,"[,)"
380,7,"[,)"
380,29,"[,)"
380,30,"[,)"
381,120,"[,)"
381,96,"[,)"
381,108,"[,)"
382,21,"[,)"
382,42,"[,)"
383,6,"[,)"
383,33,"[,)"
383,74,"[,)"
384,65,"[,)"
384,29,"[,)"
384,43,"[,)"
385,90,"[,)"
385,79,"[,)"
385,103,"[,)"
386,6,"[,)"
386,8,"[,)"
386,26,"[,)"
387,1,"[,)"
387,25,"[,)"
387,82,"[,)"
388,129,"[,)"
388,116,"[,)"
389,85,"[,)"
389,51,"[,)"
390,21,"[,)"
390,126,"[,)"
391,32,"[,)"
391,47,"[,)"
392,98,"[,)"
392,165,"[,)"
393,80,"[,)"
393,81,"[,)"
393,54,"[,)"
394,145,"[,)"
394,172,"[,)"
395,2,"[,)"
395,38,"[,)"
395,49,"[,)"
396,179,"[,)"
396,171,"[,)"
396,117,"[,)"
397,144,"[,)"
397,89,"[,)"
397,124,"[,)"
398,36,"[,)"
398,37,"[,)"
399,179,"[,)"
399,148,"[,)"
399,140,"[,)"
400,89,"[,)"
400,181,"[,)"
400,52,"[,)"
401,11,"[,)"
401,32,"[,)"
401,56,"[,)"
402,126,"[,)"
402,146,"[,)"
403,181,"[,)"
403,119,"[,)"
403,76,"[,)"
404,96,"[,)"
404,183,"[,)"
405,20,"[,)"
405,107,"[,)"
405,58,"[,)"
406,118,"[,)"
406,139,"[,)"
406,70,"[,)"
407,15,"[,)"
407,16,"[,)"
407,36,"[,)"
408,66,"[,)"
408,155,"[,)"
409,174,"[,)"
409,108,"[,)"
410,102,"[,)"
410,92,"[,)"
411,116,"[,)"
411,158,"[,)"
412,182,"[,)"
413,80,"[,)"
413,104,"[,)"
414,91,"[,)"
414,140,"[,)"
415,3,"[,)"
415,30,"[,)"
415,40,"[,)"
416,168,"[,)"
416,131,"[,)"
417,68,"[,)"
417,114,"[,)"
417,154,"[,)"
418,109,"[,)"
418,12,"[,)"
418,99,"[,)"
419,96,"[,)"
419,145,"[,)"
420,106,"[,)"
420,33,"[,)"
420,44,"[,)"
421,60,"[,)"
421,90,"[,)"
421,23,"[,)"
422,14,"[,)"
422,43,"[,)"
422,47,"[,)"
423,156,"[,)"
423,92,"[,)"
424,28,"[,)"
424,74,"[,)"
425,62,"[,)"
425,55,"[,)"
426,164,"[,)"
426,130,"[,)"
426,169,"[,)"
427,63,"[,)"
427,143,"[,)"
427,87,"[,)"
428,113,"[,)"
428,153,"[,)"
429,18,"[,)"
429,53,"[,)"
430,10,"[,)"
430,36,"[,)"
430,51,"[,)"
431,109,"[,)"
431,140,"[,)"
432,1,"[,)"
432,115,"[,)"
433,15,"[,)"
433,39,"[,)"
433,57,"[,)"
434,14,"[,)"
434,42,"[,)"
434,117,"[,)"
435,16,"[,)"
435,36,"[,)"
435,57,"[,)"
436,127,"[,)"
436,177,"[,)"
437,85,"[,)"
437,52,"[,)"
438,33,"[,)"
438,170,"[,)"
438,73,"[,)"
439,102,"[,)"
439,55,"[,)"
440,124,"[,)"
440,121,"[,)"
441,173,"[,)"
441,89,"[,)"
441,176,"[,)"
442,113,"[,)"
442,161,"[,)"
442,50,"[,)"
443,84,"[,)"
443,30,"[,)"
443,132,"[,)"
444,77,"[,)"
444,115,"[,)"
444,88,"[,)"
445,22,"[,)"
445,32,"[,)"
446,68,"[,)"
446,169,"[,)"
447,21,"[,)"
447,126,"[,)"
447,82,"[,)"
448,13,"[,)"
448,106,"[,)"
448,78,"[,)"
449,6,"[,)"
449,36,"[,)"
449,41,"[,)"
450,114,"[,)"
450,63,"[,)"
451,89,"[,)"
451,159,"[,)"
452,124,"[,)"
452,121,"[,)"
452,97,"[,)"
453,151,"[,)"
453,35,"[,)"
453,70,"[,)"
454,53,"[,)"
454,59,"[,)"
455,68,"[,)"
455,182,"[,)"
455,51,"[,)"
456,128,"[,)"
456,79,"[,)"
456,122,"[,)"
457,60,"[,)"
457,114,"[,)"
457,116,"[,)"
458,66,"[,)"
458,157,"[,)"
458,17,"[,)"
459,168,"[,)"
459,82,"[,)"
459,119,"[,)"
460,98,"[,)"
460,28,"[,)"
460,165,"[,)"
461,159,"[,)"
461,61,"[,)"
461,70,"[,)"
462,168,"[,)"
462,119,"[,)"
463,18,"[,)"
463,106,"[,)"
463,164,"[,)"
464,133,"[,)"
464,154,"[,)"
465,71,"[,)"
465,152,"[,)"
465,42,"[,)"
466,165,"[,)"
466,44,"[,)"
466,122,"[,)"
467,90,"[,)"
467,126,"[,)"
467,74,"[,)"
468,65,"[,)"
468,13,"[,)"
468,98,"[,)"
469,111,"[,)"
469,131,"[,)"
469,51,"[,)"
470,1,"[,)"
470,114,"[,)"
470,99,"[,)"
471,9,"[,)"
471,11,"[,)"
471,118,"[,)"
472,112,"[,)"
472,36,"[,)"
472,73,"[,)"
473,109,"[,)"
473,25,"[,)"
473,169,"[,)"
474,16,"[,)"
474,22,"[,)"
474,40,"[,)"
475,181,"[,)"
475,132,"[,)"
475,79,"[,)"
476,151,"[,)"
476,13,"[,)"
476,26,"[,)"
477,111,"[,)"
477,122,"[,)"
478,163,"[,)"
478,20,"[,)"
478,126,"[,)"
479,24,"[,)"
479,28,"[,)"
479,115,"[,)"
480,8,"[,)"
480,86,"[,)"
480,49,"[,)"
481,157,"[,)"
481,17,"[,)"
482,172,"[,)"
482,140,"[,)"
482,162,"[,)"
483,118,"[,)"
483,51,"[,)"
483,64,"[,)"
484,20,"[,)"
484,33,"[,)"
484,43,"[,)"
485,163,"[,)"
485,86,"[,)"
485,116,"[,)"
486,106,"[,)"
486,32,"[,)"
486,78,"[,)"
487,182,"[,)"
487,51,"[,)"
488,4,"[,)"
488,179,"[,)"
488,26,"[,)"
488,72,"[,)"
488,59,"[,)"
489,154,"[,)"
489,146,"[,)"
490,139,"[,)"
490,170,"[,)"
490,48,"[,)"
491,136,"[,)"
491,82,"[,)"
491,42,"[,)"
492,9,"[,)"
492,81,"[,)"
492,76,"[,)"
493,121,"[,)"
493,86,"[,)"
493,103,"[,)"
494,16,"[,)"
494,74,"[,)"
494,47,"[,)"
495,19,"[,)"
495,131,"[,)"
495,183,"[,)"
496,98,"[,)"
496,39,"[,)"
496,165,"[,)"
497,7,"[,)"
497,26,"[,)"
497,78,"[,)"
499,123,"[,)"
499,154,"[,)"
499,177,"[,)"
500,135,"[,)"
500,157,"[,)"
501,63,"[,)"
501,91,"[,)"
502,66,"[,)"
502,118,"[,)"
502,171,"[,)"
502,73,"[,)"
503,9,"[,)"
503,28,"[,)"
503,49,"[,)"
504,22,"[,)"
504,26,"[,)"
504,36,"[,)"
505,2,"[,)"
505,4,"[,)"
505,16,"[,)"
506,160,"[,)"
506,103,"[,)"
506,59,"[,)"
507,90,"[,)"
507,32,"[,)"
507,100,"[,)"
508,129,"[,)"
508,33,"[,)"
508,54,"[,)"
509,80,"[,)"
509,113,"[,)"
510,150,"[,)"
510,71,"[,)"
510,28,"[,)"
511,65,"[,)"
511,71,"[,)"
511,152,"[,)"
511,99,"[,)"
511,42,"[,)"
512,71,"[,)"
512,28,"[,)"
512,41,"[,)"
513,164,"[,)"
513,28,"[,)"
513,58,"[,)"
514,109,"[,)"
514,29,"[,)"
514,140,"[,)"
515,7,"[,)"
515,90,"[,)"
516,109,"[,)"
516,72,"[,)"
516,29,"[,)"
516,140,"[,)"
517,47,"[,)"
517,100,"[,)"
517,70,"[,)"
516,88,"[,)"
518,11,"[,)"
518,32,"[,)"
519,4,"[,)"
519,33,"[,)"
520,4,"[,)"
520,31,"[,)"
520,33,"[,)"
521,143,"[,)"
521,87,"[,)"
522,180,"[,)"
522,93,"[,)"
523,157,"[,)"
523,91,"[,)"
523,64,"[,)"
524,98,"[,)"
524,148,"[,)"
524,42,"[,)"
525,15,"[,)"
525,54,"[,)"
526,10,"[,)"
526,15,"[,)"
526,54,"[,)"
527,106,"[,)"
527,39,"[,)"
527,42,"[,)"
528,5,"[,)"
528,91,"[,)"
528,115,"[,)"
528,165,"[,)"
529,19,"[,)"
529,126,"[,)"
529,183,"[,)"
530,77,"[,)"
530,175,"[,)"
530,102,"[,)"
531,83,"[,)"
531,168,"[,)"
531,70,"[,)"
532,136,"[,)"
532,153,"[,)"
533,6,"[,)"
533,30,"[,)"
533,52,"[,)"
534,164,"[,)"
534,121,"[,)"
534,123,"[,)"
535,11,"[,)"
535,24,"[,)"
535,51,"[,)"
535,168,"[,)"
536,83,"[,)"
536,110,"[,)"
536,162,"[,)"
536,103,"[,)"
537,68,"[,)"
537,169,"[,)"
538,163,"[,)"
538,106,"[,)"
538,126,"[,)"
538,134,"[,)"
539,40,"[,)"
539,88,"[,)"
540,72,"[,)"
540,131,"[,)"
541,26,"[,)"
541,52,"[,)"
542,181,"[,)"
542,92,"[,)"
543,105,"[,)"
543,93,"[,)"
544,178,"[,)"
544,101,"[,)"
545,79,"[,)"
545,76,"[,)"
546,120,"[,)"
546,21,"[,)"
546,123,"[,)"
547,104,"[,)"
547,35,"[,)"
548,32,"[,)"
548,55,"[,)"
549,138,"[,)"
549,177,"[,)"
550,151,"[,)"
550,96,"[,)"
551,163,"[,)"
551,39,"[,)"
552,24,"[,)"
552,117,"[,)"
553,60,"[,)"
553,80,"[,)"
553,113,"[,)"
554,128,"[,)"
554,87,"[,)"
554,44,"[,)"
555,137,"[,)"
555,48,"[,)"
556,120,"[,)"
556,91,"[,)"
557,69,"[,)"
557,123,"[,)"
557,141,"[,)"
559,125,"[,)"
559,156,"[,)"
560,37,"[,)"
560,62,"[,)"
560,53,"[,)"
561,138,"[,)"
561,134,"[,)"
562,2,"[,)"
562,135,"[,)"
562,79,"[,)"
563,19,"[,)"
563,182,"[,)"
564,142,"[,)"
564,167,"[,)"
564,90,"[,)"
565,68,"[,)"
565,114,"[,)"
566,153,"[,)"
566,108,"[,)"
566,62,"[,)"
567,18,"[,)"
567,27,"[,)"
567,92,"[,)"
568,174,"[,)"
568,87,"[,)"
568,97,"[,)"
568,48,"[,)"
569,163,"[,)"
569,24,"[,)"
569,123,"[,)"
570,129,"[,)"
570,9,"[,)"
570,95,"[,)"
571,85,"[,)"
571,107,"[,)"
572,14,"[,)"
572,24,"[,)"
572,95,"[,)"
572,127,"[,)"
573,182,"[,)"
573,147,"[,)"
574,2,"[,)"
574,8,"[,)"
575,98,"[,)"
575,28,"[,)"
576,133,"[,)"
576,158,"[,)"
577,125,"[,)"
577,96,"[,)"
577,133,"[,)"
578,179,"[,)"
578,117,"[,)"
579,139,"[,)"
579,170,"[,)"
580,68,"[,)"
580,182,"[,)"
580,170,"[,)"
581,106,"[,)"
581,164,"[,)"
581,69,"[,)"
582,11,"[,)"
582,24,"[,)"
582,76,"[,)"
583,168,"[,)"
583,92,"[,)"
584,174,"[,)"
584,87,"[,)"
585,9,"[,)"
585,72,"[,)"
586,68,"[,)"
586,77,"[,)"
587,112,"[,)"
587,165,"[,)"
588,80,"[,)"
588,63,"[,)"
588,57,"[,)"
589,125,"[,)"
589,45,"[,)"
590,136,"[,)"
590,97,"[,)"
591,157,"[,)"
591,110,"[,)"
592,124,"[,)"
592,156,"[,)"
593,111,"[,)"
593,177,"[,)"
594,116,"[,)"
594,93,"[,)"
595,3,"[,)"
595,67,"[,)"
596,13,"[,)"
596,150,"[,)"
597,35,"[,)"
597,94,"[,)"
597,88,"[,)"
598,129,"[,)"
598,52,"[,)"
599,90,"[,)"
599,150,"[,)"
599,103,"[,)"
600,173,"[,)"
600,163,"[,)"
600,5,"[,)"
601,107,"[,)"
601,140,"[,)"
601,154,"[,)"
602,159,"[,)"
602,130,"[,)"
602,152,"[,)"
603,82,"[,)"
603,119,"[,)"
603,147,"[,)"
604,77,"[,)"
604,179,"[,)"
604,172,"[,)"
604,94,"[,)"
604,70,"[,)"
605,94,"[,)"
605,141,"[,)"
605,100,"[,)"
606,142,"[,)"
606,113,"[,)"
606,13,"[,)"
607,66,"[,)"
607,80,"[,)"
607,149,"[,)"
608,112,"[,)"
608,23,"[,)"
608,122,"[,)"
609,20,"[,)"
609,118,"[,)"
609,91,"[,)"
610,60,"[,)"
610,33,"[,)"
610,81,"[,)"
611,66,"[,)"
611,160,"[,)"
611,53,"[,)"
612,86,"[,)"
612,97,"[,)"
612,58,"[,)"
613,116,"[,)"
613,73,"[,)"
614,172,"[,)"
614,182,"[,)"
614,51,"[,)"
615,14,"[,)"
615,44,"[,)"
615,76,"[,)"
616,152,"[,)"
616,183,"[,)"
616,154,"[,)"
617,77,"[,)"
617,35,"[,)"
617,88,"[,)"
618,163,"[,)"
618,5,"[,)"
618,91,"[,)"
619,180,"[,)"
619,139,"[,)"
619,170,"[,)"
620,157,"[,)"
620,17,"[,)"
620,78,"[,)"
621,142,"[,)"
621,149,"[,)"
621,119,"[,)"
622,120,"[,)"
622,53,"[,)"
623,96,"[,)"
623,44,"[,)"
623,90,"[,)"
624,67,"[,)"
624,40,"[,)"
625,167,"[,)"
625,85,"[,)"
626,148,"[,)"
626,107,"[,)"
626,87,"[,)"
627,125,"[,)"
627,95,"[,)"
627,100,"[,)"
628,81,"[,)"
628,55,"[,)"
628,88,"[,)"
629,161,"[,)"
629,82,"[,)"
629,158,"[,)"
630,9,"[,)"
630,50,"[,)"
630,54,"[,)"
631,66,"[,)"
631,112,"[,)"
632,6,"[,)"
632,87,"[,)"
632,56,"[,)"
633,106,"[,)"
633,70,"[,)"
633,73,"[,)"
634,150,"[,)"
634,139,"[,)"
634,91,"[,)"
635,5,"[,)"
635,39,"[,)"
636,22,"[,)"
636,27,"[,)"
636,36,"[,)"
637,1,"[,)"
637,67,"[,)"
637,79,"[,)"
638,116,"[,)"
638,93,"[,)"
639,122,"[,)"
639,162,"[,)"
640,157,"[,)"
640,85,"[,)"
640,143,"[,)"
641,136,"[,)"
641,158,"[,)"
642,130,"[,)"
642,152,"[,)"
642,55,"[,)"
643,44,"[,)"
643,117,"[,)"
643,162,"[,)"
644,155,"[,)"
644,140,"[,)"
644,108,"[,)"
645,118,"[,)"
645,87,"[,)"
646,5,"[,)"
646,14,"[,)"
647,64,"[,)"
647,59,"[,)"
648,121,"[,)"
648,97,"[,)"
649,174,"[,)"
649,112,"[,)"
650,173,"[,)"
650,91,"[,)"
650,86,"[,)"
651,19,"[,)"
651,37,"[,)"
651,53,"[,)"
652,178,"[,)"
652,149,"[,)"
652,116,"[,)"
653,171,"[,)"
653,114,"[,)"
653,123,"[,)"
654,98,"[,)"
654,79,"[,)"
654,92,"[,)"
655,142,"[,)"
655,102,"[,)"
655,42,"[,)"
656,148,"[,)"
656,147,"[,)"
657,172,"[,)"
657,162,"[,)"
657,55,"[,)"
658,1,"[,)"
658,24,"[,)"
658,28,"[,)"
659,26,"[,)"
659,43,"[,)"
659,46,"[,)"
660,126,"[,)"
660,108,"[,)"
660,146,"[,)"
661,15,"[,)"
661,35,"[,)"
661,158,"[,)"
662,45,"[,)"
662,54,"[,)"
663,21,"[,)"
663,166,"[,)"
663,119,"[,)"
664,13,"[,)"
664,95,"[,)"
664,81,"[,)"
665,65,"[,)"
665,6,"[,)"
665,8,"[,)"
666,68,"[,)"
666,176,"[,)"
666,169,"[,)"
667,164,"[,)"
667,28,"[,)"
667,58,"[,)"
668,83,"[,)"
668,26,"[,)"
668,154,"[,)"
669,163,"[,)"
669,24,"[,)"
669,123,"[,)"
670,89,"[,)"
670,91,"[,)"
670,49,"[,)"
671,11,"[,)"
671,107,"[,)"
671,58,"[,)"
672,17,"[,)"
672,114,"[,)"
672,107,"[,)"
673,19,"[,)"
673,32,"[,)"
673,117,"[,)"
674,121,"[,)"
674,55,"[,)"
675,145,"[,)"
675,127,"[,)"
676,98,"[,)"
676,73,"[,)"
677,24,"[,)"
677,87,"[,)"
678,152,"[,)"
678,42,"[,)"
678,44,"[,)"
679,135,"[,)"
679,169,"[,)"
680,14,"[,)"
680,40,"[,)"
680,76,"[,)"
681,154,"[,)"
681,51,"[,)"
682,27,"[,)"
682,37,"[,)"
683,155,"[,)"
683,86,"[,)"
684,39,"[,)"
684,70,"[,)"
685,2,"[,)"
685,83,"[,)"
685,40,"[,)"
686,32,"[,)"
686,107,"[,)"
686,127,"[,)"
687,157,"[,)"
687,27,"[,)"
687,97,"[,)"
688,86,"[,)"
688,140,"[,)"
689,83,"[,)"
689,132,"[,)"
689,76,"[,)"
690,4,"[,)"
690,6,"[,)"
690,27,"[,)"
691,161,"[,)"
691,94,"[,)"
692,164,"[,)"
692,79,"[,)"
692,103,"[,)"
693,2,"[,)"
693,178,"[,)"
693,40,"[,)"
694,84,"[,)"
694,96,"[,)"
695,170,"[,)"
695,48,"[,)"
696,60,"[,)"
696,31,"[,)"
696,55,"[,)"
697,174,"[,)"
697,115,"[,)"
697,170,"[,)"
698,137,"[,)"
698,59,"[,)"
699,11,"[,)"
699,107,"[,)"
699,58,"[,)"
700,2,"[,)"
700,153,"[,)"
701,15,"[,)"
701,175,"[,)"
701,57,"[,)"
702,155,"[,)"
702,74,"[,)"
702,116,"[,)"
703,183,"[,)"
703,127,"[,)"
703,88,"[,)"
704,13,"[,)"
704,102,"[,)"
704,116,"[,)"
705,68,"[,)"
705,113,"[,)"
705,150,"[,)"
706,175,"[,)"
706,161,"[,)"
706,91,"[,)"
707,178,"[,)"
707,153,"[,)"
707,108,"[,)"
708,112,"[,)"
708,9,"[,)"
708,98,"[,)"
709,156,"[,)"
709,64,"[,)"
709,177,"[,)"
710,44,"[,)"
710,81,"[,)"
710,93,"[,)"
711,174,"[,)"
711,134,"[,)"
712,163,"[,)"
712,86,"[,)"
712,122,"[,)"
713,120,"[,)"
713,67,"[,)"
713,143,"[,)"
714,65,"[,)"
714,17,"[,)"
714,183,"[,)"
715,19,"[,)"
715,74,"[,)"
715,116,"[,)"
716,80,"[,)"
716,23,"[,)"
717,139,"[,)"
717,138,"[,)"
718,2,"[,)"
718,11,"[,)"
718,91,"[,)"
719,96,"[,)"
719,175,"[,)"
719,108,"[,)"
720,6,"[,)"
720,56,"[,)"
720,92,"[,)"
721,178,"[,)"
721,90,"[,)"
721,58,"[,)"
722,3,"[,)"
722,27,"[,)"
722,33,"[,)"
723,174,"[,)"
723,148,"[,)"
723,29,"[,)"
724,89,"[,)"
724,129,"[,)"
724,104,"[,)"
725,7,"[,)"
725,60,"[,)"
725,22,"[,)"
726,115,"[,)"
726,100,"[,)"
727,164,"[,)"
727,72,"[,)"
727,110,"[,)"
728,136,"[,)"
728,82,"[,)"
728,44,"[,)"
729,37,"[,)"
729,43,"[,)"
730,78,"[,)"
730,105,"[,)"
730,73,"[,)"
731,141,"[,)"
731,70,"[,)"
732,109,"[,)"
732,145,"[,)"
732,52,"[,)"
733,61,"[,)"
733,137,"[,)"
733,48,"[,)"
734,20,"[,)"
734,117,"[,)"
734,127,"[,)"
735,130,"[,)"
735,101,"[,)"
735,87,"[,)"
736,118,"[,)"
736,62,"[,)"
736,59,"[,)"
737,151,"[,)"
737,13,"[,)"
737,94,"[,)"
737,100,"[,)"
737,88,"[,)"
738,167,"[,)"
738,58,"[,)"
739,144,"[,)"
739,156,"[,)"
739,64,"[,)"
740,11,"[,)"
740,175,"[,)"
740,92,"[,)"
741,150,"[,)"
741,27,"[,)"
742,95,"[,)"
742,51,"[,)"
743,19,"[,)"
743,63,"[,)"
743,36,"[,)"
744,164,"[,)"
744,72,"[,)"
744,110,"[,)"
745,83,"[,)"
745,101,"[,)"
745,154,"[,)"
746,7,"[,)"
746,140,"[,)"
746,57,"[,)"
747,84,"[,)"
747,150,"[,)"
747,27,"[,)"
747,97,"[,)"
747,73,"[,)"
748,172,"[,)"
748,132,"[,)"
748,183,"[,)"
749,15,"[,)"
749,36,"[,)"
749,88,"[,)"
750,85,"[,)"
750,17,"[,)"
750,22,"[,)"
751,159,"[,)"
751,153,"[,)"
751,131,"[,)"
751,58,"[,)"
752,161,"[,)"
752,91,"[,)"
753,136,"[,)"
753,128,"[,)"
753,98,"[,)"
754,182,"[,)"
754,79,"[,)"
755,160,"[,)"
755,99,"[,)"
755,165,"[,)"
756,14,"[,)"
756,134,"[,)"
756,156,"[,)"
757,115,"[,)"
757,116,"[,)"
757,46,"[,)"
758,21,"[,)"
758,133,"[,)"
758,126,"[,)"
758,168,"[,)"
759,9,"[,)"
759,18,"[,)"
759,79,"[,)"
759,42,"[,)"
759,50,"[,)"
760,7,"[,)"
760,11,"[,)"
760,69,"[,)"
760,62,"[,)"
760,92,"[,)"
761,41,"[,)"
761,93,"[,)"
761,52,"[,)"
762,68,"[,)"
762,150,"[,)"
762,33,"[,)"
762,115,"[,)"
762,176,"[,)"
763,4,"[,)"
763,25,"[,)"
764,120,"[,)"
764,27,"[,)"
764,42,"[,)"
765,144,"[,)"
765,128,"[,)"
765,155,"[,)"
765,48,"[,)"
766,163,"[,)"
766,125,"[,)"
766,165,"[,)"
767,2,"[,)"
767,82,"[,)"
767,119,"[,)"
768,164,"[,)"
768,72,"[,)"
768,29,"[,)"
768,110,"[,)"
769,171,"[,)"
769,139,"[,)"
770,12,"[,)"
770,18,"[,)"
771,7,"[,)"
771,37,"[,)"
771,99,"[,)"
772,84,"[,)"
772,102,"[,)"
772,105,"[,)"
773,135,"[,)"
773,63,"[,)"
774,120,"[,)"
774,85,"[,)"
774,91,"[,)"
774,81,"[,)"
775,112,"[,)"
775,83,"[,)"
775,160,"[,)"
776,6,"[,)"
776,35,"[,)"
776,49,"[,)"
777,71,"[,)"
777,23,"[,)"
777,1,"[,)"
777,44,"[,)"
777,73,"[,)"
778,144,"[,)"
778,182,"[,)"
778,116,"[,)"
779,28,"[,)"
779,39,"[,)"
779,99,"[,)"
780,18,"[,)"
780,121,"[,)"
780,87,"[,)"
780,73,"[,)"
781,75,"[,)"
781,148,"[,)"
781,147,"[,)"
782,79,"[,)"
782,76,"[,)"
783,167,"[,)"
783,133,"[,)"
783,146,"[,)"
783,93,"[,)"
783,52,"[,)"
784,66,"[,)"
784,16,"[,)"
784,20,"[,)"
785,174,"[,)"
785,109,"[,)"
785,124,"[,)"
785,123,"[,)"
785,111,"[,)"
786,26,"[,)"
786,177,"[,)"
786,57,"[,)"
787,5,"[,)"
787,68,"[,)"
787,149,"[,)"
788,41,"[,)"
788,59,"[,)"
789,65,"[,)"
789,80,"[,)"
789,40,"[,)"
789,92,"[,)"
789,58,"[,)"
790,96,"[,)"
790,24,"[,)"
791,5,"[,)"
791,114,"[,)"
791,134,"[,)"
792,109,"[,)"
792,23,"[,)"
792,69,"[,)"
792,162,"[,)"
793,106,"[,)"
793,74,"[,)"
793,55,"[,)"
794,98,"[,)"
794,148,"[,)"
794,133,"[,)"
794,86,"[,)"
794,165,"[,)"
795,37,"[,)"
795,38,"[,)"
795,82,"[,)"
796,135,"[,)"
796,95,"[,)"
796,123,"[,)"
796,154,"[,)"
797,9,"[,)"
797,33,"[,)"
797,43,"[,)"
798,12,"[,)"
798,29,"[,)"
798,35,"[,)"
798,107,"[,)"
798,51,"[,)"
799,142,"[,)"
799,20,"[,)"
799,166,"[,)"
799,141,"[,)"
800,4,"[,)"
800,112,"[,)"
800,63,"[,)"
800,61,"[,)"
800,137,"[,)"
801,2,"[,)"
801,1,"[,)"
801,25,"[,)"
802,80,"[,)"
802,150,"[,)"
802,28,"[,)"
802,70,"[,)"
802,58,"[,)"
803,83,"[,)"
803,44,"[,)"
803,45,"[,)"
803,62,"[,)"
804,125,"[,)"
804,68,"[,)"
804,40,"[,)"
805,14,"[,)"
805,15,"[,)"
805,147,"[,)"
805,117,"[,)"
805,93,"[,)"
806,149,"[,)"
806,161,"[,)"
806,158,"[,)"
807,10,"[,)"
807,27,"[,)"
807,30,"[,)"
807,31,"[,)"
807,50,"[,)"
808,6,"[,)"
808,7,"[,)"
808,32,"[,)"
808,53,"[,)"
808,54,"[,)"
809,12,"[,)"
809,16,"[,)"
809,22,"[,)"
809,25,"[,)"
809,54,"[,)"
