id,name
1,"荒木比奈"
2,"安部菜々"
3,"一ノ瀬志希"
4,"緒方智絵里"
5,"奥山沙織"
6,"輿水幸子"
7,"小早川紗枝"
8,"小日向美穂"
9,"椎名法子"
10,"島村卯月"
11,"道明寺歌鈴"
12,"中野有香"
13,"福山舞"
14,"藤本里奈"
15,"双葉杏"
16,"前川みく"
17,"水本ゆかり"
18,"三村かな子"
19,"宮本フレデリカ"
20,"桃井あずき"
21,"相川千夏"
22,"アナスタシア"
23,"綾瀬穂乃香"
24,"上条春菜"
25,"神谷奈緒"
26,"川島瑞樹"
27,"神崎蘭子"
28,"佐々木千枝"
29,"佐城雪美"
30,"塩見周子"
31,"渋谷凛"
32,"白坂小梅"
33,"高垣楓"
34,"多田李衣菜"
35,"橘ありす"
36,"新田美波"
37,"速水奏"
38,"北条加蓮"
39,"松本沙理奈"
40,"相葉夕美"
41,"赤城みりあ"
42,"及川雫"
43,"大槻唯"
44,"片桐早苗"
45,"木村夏樹"
46,"城ヶ崎美嘉"
47,"城ヶ崎莉嘉"
48,"仙崎恵磨"
49,"高森藍子"
50,"十時愛梨"
51,"ナターリア"
52,"日野茜"
53,"姫川友紀"
54,"星輝子"
55,"堀裕子"
56,"本田未央"
57,"諸星きらり"
58,"龍崎薫"
59,"若林智香"
60,"佐久間まゆ"
61,"松永涼"
62,"浜口あやめ"
63,"鷺沢文香"
64,"松山久美子"
65,"五十嵐響子"
66,"西園寺琴歌"
67,"二宮飛鳥"
68,"クラリス"
69,"脇山珠美"
70,"メアリー・コクラン"
71,"横山千佳"
72,"黒川千秋"
73,"矢口美羽"
74,"市原仁奈"
75,"工藤忍"
76,"向井拓海"
77,"白菊ほたる"
78,"喜多日菜子"
79,"森久保乃々"
80,"櫻井桃華"
81,"喜多見柚"
82,"三船美優"
83,"兵藤レナ"
84,"井村雪菜"
85,"原田美世"
86,"大和亜季"
87,"八神マキノ"
88,"村上巴"
89,"今井加奈"
90,"早坂美玲"
91,"藤原肇"
92,"依田芳乃"
93,"難波笑美"
94,"結城晴"
95,"ライラ"
96,"岡崎泰葉"
97,"小関麗奈"
98,"棟方愛海"
99,"水木聖來"
100,"的場梨沙"
101,"大石泉"
102,"藤居朋"
103,"三好紗南"
104,"村松さくら"
105,"土屋亜子"
106,"持田亜里沙"
107,"東郷あい"
108,"首藤葵"
109,"月宮雅"
110,"水野翠"
111,"小松伊吹"
112,"榊原里美"
113,"関裕美"
114,"梅木音葉"
115,"成宮由愛"
116,"上田鈴帆"
117,"並木芽衣子"
118,"楊菲菲"
119,"和久井留美"
120,"乙倉悠貴"
121,"氏家むつみ"
122,"杉坂海"
123,"北川真尋"
124,"松原早耶"
125,"有浦柑奈"
126,"高橋礼子"
127,"槙原志保"
128,"大西由里子"
129,"大原みちる"
130,"浅利七海"
131,"斉藤洋子"
132,"篠原礼"
133,"木場真奈美"
134,"西島櫂"
135,"栗原ネネ"
136,"太田優"
137,"吉岡沙紀"
138,"愛野渚"
139,"ケイト"
140,"衛藤美紗希"
141,"南条光"
142,"大沼くるみ"
143,"古澤頼子"
144,"安斎都"
145,"桐野アヤ"
146,"相馬夏美"
147,"佐藤心"
148,"柳清良"
149,"桐生つかさ"
150,"遊佐こずえ"
151,"古賀小春"
152,"瀬名詩織"
153,"松尾千鶴"
154,"沢田麻理菜"
155,"服部瞳子"
156,"野々村そら"
157,"涼宮星花"
158,"財前時子"
159,"長富蓮実"
160,"岸部彩華"
161,"高峯のあ"
162,"浜川愛結奈"
163,"浅野風香"
164,"柳瀬美由紀"
165,"海老原菜帆"
166,"西川保奈美"
167,"日下部若葉"
168,"柊志乃"
169,"イヴ・サンタクロース"
170,"キャシー・グラハム"
171,"伊集院惠"
172,"小室千奈美"
173,"相原雪乃"
174,"江上椿"
175,"鷹富士茄子"
176,"望月聖"
177,"真鍋いつき"
178,"池袋晶葉"
179,"間中美里"
180,"赤西瑛梨華"
181,"丹羽仁美"
182,"ヘレン"
183,"冴島清美"
